{
	"info": {
		"_postman_id": "b3ca555f-3cf1-43cd-a86c-e0feb69f247b",
		"name": "BCA Scraping App Routing",
		"description": "Berisi list dari semua route yang dapat diakses di BCA Scraping App",
		"schema": "https://schema.getpostman.com/json/collection/v2.1.0/collection.json"
	},
	"item": [
		{
			"name": "GET /api/indexing",
			"request": {
				"method": "GET",
				"header": [],
				"body": {
					"mode": "raw",
					"raw": ""
				},
				"url": {
					"raw": "http://localhost:7000/api/indexing",
					"protocol": "http",
					"host": [
						"localhost"
					],
					"port": "7000",
					"path": [
						"api",
						"indexing"
					]
				},
				"description": "Scraping data kurs from BCA website"
			},
			"response": []
		},
		{
			"name": "GET /api/kurs?startdate=:startdate&enddate=:enddate",
			"request": {
				"method": "GET",
				"header": [],
				"body": {
					"mode": "raw",
					"raw": ""
				},
				"url": {
					"raw": "http://localhost:7000/api/kurs?startdate=2019-03-19&enddate=2019-03-19",
					"protocol": "http",
					"host": [
						"localhost"
					],
					"port": "7000",
					"path": [
						"api",
						"kurs"
					],
					"query": [
						{
							"key": "startdate",
							"value": "2019-03-19"
						},
						{
							"key": "enddate",
							"value": "2019-03-19"
						}
					]
				},
				"description": "Get all kurs according to parameters given"
			},
			"response": []
		},
		{
			"name": "GET /api/kurs/:symbol?startdate=:startdate&enddate=:enddate",
			"request": {
				"method": "GET",
				"header": [],
				"body": {
					"mode": "raw",
					"raw": ""
				},
				"url": {
					"raw": "http://localhost:7000/api/kurs/USD?startdate=2019-03-19&enddate=2019-03-19",
					"protocol": "http",
					"host": [
						"localhost"
					],
					"port": "7000",
					"path": [
						"api",
						"kurs",
						"USD"
					],
					"query": [
						{
							"key": "startdate",
							"value": "2019-03-19"
						},
						{
							"key": "enddate",
							"value": "2019-03-19"
						}
					]
				},
				"description": "Get all kurs according to symbol and parameters given"
			},
			"response": []
		},
		{
			"name": "POST /api/kurs",
			"request": {
				"method": "POST",
				"header": [
					{
						"key": "Content-Type",
						"name": "Content-Type",
						"value": "application/json",
						"type": "text"
					}
				],
				"body": {
					"mode": "raw",
					"raw": "{\n\t\"symbol\": \"ANR\",\n\t\"e_rate\": {\n\t\t\"jual\": 1803.55,\n\t\t\"beli\": 20\n\t},\n\t\"tt_counter\": {\n\t\t\"jual\": 1803.55,\n\t\t\"beli\": 200\n\t},\n\t\"bank_notes\": {\n\t\t\"jual\": 1803.55,\n\t\t\"beli\": 2000\n\t},\n\t\"date\": \"2099-03-20\"\n}"
				},
				"url": {
					"raw": "http://localhost:7000/api/kurs",
					"protocol": "http",
					"host": [
						"localhost"
					],
					"port": "7000",
					"path": [
						"api",
						"kurs"
					]
				},
				"description": "Insert a new kurs"
			},
			"response": []
		},
		{
			"name": "PUT /api/kurs",
			"request": {
				"method": "PUT",
				"header": [
					{
						"key": "Content-Type",
						"name": "Content-Type",
						"value": "application/json",
						"type": "text"
					}
				],
				"body": {
					"mode": "raw",
					"raw": "{\n\t\"symbol\": \"ANR\",\n\t\"e_rate\": {\n\t\t\"jual\": 20,\n\t\t\"beli\": 20\n\t},\n\t\"tt_counter\": {\n\t\t\"jual\": 200,\n\t\t\"beli\": 200\n\t},\n\t\"bank_notes\": {\n\t\t\"jual\": 2000,\n\t\t\"beli\": 2000\n\t},\n\t\"date\": \"2099-03-20\"\n}"
				},
				"url": {
					"raw": "http://localhost:7000/api/kurs",
					"protocol": "http",
					"host": [
						"localhost"
					],
					"port": "7000",
					"path": [
						"api",
						"kurs"
					]
				},
				"description": "Update a kurs"
			},
			"response": []
		},
		{
			"name": "DELETE /api/kurs/:date",
			"request": {
				"method": "DELETE",
				"header": [],
				"body": {
					"mode": "raw",
					"raw": ""
				},
				"url": {
					"raw": "http://localhost:7000/api/kurs/2099-03-20",
					"protocol": "http",
					"host": [
						"localhost"
					],
					"port": "7000",
					"path": [
						"api",
						"kurs",
						"2099-03-20"
					]
				},
				"description": "Delete kurs"
			},
			"response": []
		}
	]
}